<?xml version="1.0" encoding="utf-8"?>
<!-- Generator: Adobe Illustrator 22.1.0, SVG Export Plug-In . SVG Version: 6.00 Build 0)  -->
<svg version="1.1" id="Layer_1" xmlns="http://www.w3.org/2000/svg" xmlns:xlink="http://www.w3.org/1999/xlink" x="0px" y="0px"
	 viewBox="0 0 512 512" style="enable-background:new 0 0 512 512;" xml:space="preserve">
<style type="text/css">
	.st0{fill:#FFFFFF;}
</style>
<g>
	<g>
		<path class="st0" d="M475.8,376.8c2.5-2.8,4.8-5.8,6.8-9c2.3-3.5,6.9-4.5,10.4-2.2s4.4,6.9,2.2,10.4c-2.4,3.8-5.2,7.4-8.1,10.7
			c-1.5,1.7-6.5,4.4-10.6,0.7C473.4,384.6,473.1,379.9,475.8,376.8z"/>
	</g>
	<g>
		<path class="st0" d="M73.2,235.6c-1.8-4.4-2.9-8.5-3.7-12.3c-10.9-5.4-20.2-13.9-26.5-24.8L36.4,187c-3.5-6.1-8.1-11.2-13.8-15.3
			l-5.9-4.3c-4.8-3.5-7.1-9.3-6-15.2s5.5-10.4,11.2-11.8l25.1-6.2c15.6-3.8,32.3,0.2,44.4,10.7l10.1,8.7
			c12.3,10.6,27.3,17.6,43.4,20c4.1,0.6,6.9,4.4,6.3,8.5c-0.6,4.1-4.4,6.9-8.5,6.3c-17.4-2.6-33.8-9.8-47.6-20.7
			c5.3,25.3,26.9,39.3,46.3,46.8H184l-18.8-13.2c-6.4-4.5-9.2-12.3-7.2-19.9c2.1-7.6,8.5-12.9,16.3-13.5l109.7-8.5
			c5.6-0.4,11.1,0.5,16.1,2.6l59.3-8.3l-3.2-11.6c-1.5-5.4-0.1-11.2,3.7-15.3c6.6-7.1,15.6-4.8,16-4.7c3.1-7.2,10.2-12.2,18.5-12.2
			c11.1,0,20.2,9.1,20.2,20.2v5.5c30.2,15.8,53,41.9,66,75.8c3.5,9.2,1.7,19.1-3.8,26.4c15,9.1,25.2,22.9,33.2,39.1
			c4.1,8.3-4.7,18.7-5.2,19.1c3.2,9.5,4.8,19.4,4.8,29.5c0,10.3-1.7,20.5-5,30.1c-1.1,3.1-5.8,6-9.5,4.6c-3.9-1.4-6-5.6-4.6-9.5
			c2.8-8.1,4.2-16.6,4.2-25.2c0-9.4-1.7-18.5-4.9-27.2c-0.5-0.2-21.2-9.8-21.2-9.8c7.5,10.4,12,23.2,12,37c0,34.7-28.2,63-62.9,63
			c-16.4,0-31.9-6.3-43.7-17.7c-4.8-4.6-8.7-9.9-11.8-15.6c-1.6,5.3-4.5,9.9-8.3,13.5c14.3,21.1,38.2,34,63.8,34
			c15.9,0,31.1-4.8,44-13.9c3.4-2.4,8.1-1.5,10.4,1.9c2.4,3.4,1.5,8.1-1.8,10.4c-15.5,10.8-33.7,16.6-52.6,16.6
			c-31,0-60-15.8-76.9-41.7c-2.4,0.6-5,1-7.6,1H219c-8,0-15.7-2.3-22.2-6.5h-24c-16.3,29.2-46.9,47.2-80.3,47.2
			c-50.7,0-92-41.3-92-92.1C0.5,282,31.3,244.6,73.2,235.6z M99.2,205.1c-13.6-14-20.3-31.1-20-50.8c-8.2-5.8-18.5-7.8-28.4-5.4
			l-25.2,6.2c0,0,0,0.1,0,0.2l5.9,4.3c7.4,5.4,13.4,12.1,18,20l6.6,11.5c8.3,14.6,23.9,23.6,40.7,23.6h13.6
			C106.5,211.9,102.7,208.7,99.2,205.1z M96.8,229.7c-3.4,0-6.8-0.3-10.1-0.8c4.6,12,15.7,28.9,41.5,48.1
			c7.5-18.2,25.3-31.1,46.2-31.1c14.3,0,27.9,6.2,37.3,16.8l11.6-7.9c2.1-1.4,3.4-3.8,3.4-6.4c0-2.6-1.2-4.9-3.3-6.4
			c0,0-17.9-12.4-18.1-12.4L96.8,229.7L96.8,229.7z M119.8,348.6V346H115c-5.7,6.4-14,10.2-22.6,10.2c-6.1,0-11.9-1.8-17-5.2
			C67,345.3,62,335.9,62,325.8c0-2.4,0.3-4.8,0.8-7.1c-2.6-4.7-2.9-10.3-0.7-15.5c2.8-6.4,8.9-10.4,16-10.4h46.1
			c-6.2-4.4-11.8-8.7-16.8-13l0,0c-4.7-1.5-10.2-2-15.2-2c-26.4,0-47.9,21.5-47.9,48s21.5,48,47.9,48c11.7,0,23-4.3,31.7-12.1
			C121.5,358.1,119.8,353.5,119.8,348.6z M129.6,318c-1.6-3.2-2.8-6.7-3.7-10.2H78.3c-1.4,0-2,0.9-2.3,1.5c-0.2,0.5-0.5,1.6,0.4,2.7
			l6.7,7.3c6.8,7.5,16.5,11.8,26.6,11.8h10.8C121.8,325.6,125.1,321,129.6,318z M168.7,291.9l30.4-20.6
			c-6.5-6.5-15.4-10.3-24.8-10.3c-19.3,0-34.9,15.7-34.9,35c0,16.2,11.1,29.9,26,33.8l-3.3-4.9C155,314,158,299.2,168.7,291.9z
			 M366.6,178.6l-2.8-10.1l-45.6,6.4l15.6,12.8c1.2,1,2.8,1.4,4.3,1.2l23.8-3.3c2.2-0.3,3.4-1.7,3.9-2.5
			C366.4,182.3,367.2,180.7,366.6,178.6z M374.7,137.3c-0.7-0.2-1.5-0.3-2.2-0.4c-0.2,0-0.6-0.1-1.1,0.4c-0.3,0.3-0.4,0.7-0.3,1.2
			l3.6,13V137.3L374.7,137.3z M400,130.3c0-2.8-2.4-5.2-5.2-5.2s-5.2,2.4-5.2,5.2v26.2c0,2.8,2.4,5.2,5.2,5.2s5.2-2.4,5.2-5.2V130.3
			z M415,153c0,0,0.1,9.1-2.7,13.4c10.9,9.9,24,12.7,33.5,13.3C437.1,169.1,426.9,160.2,415,153z M494.9,284.4
			c0.2,0.1,0.8,0.3,1.4-0.2c0.6-0.6,0.4-1.1,0.3-1.3c-6.6-16-17.7-27.8-33.1-35.2l-25.9,10L494.9,284.4z M370.2,327.5
			c0.9,26,21.9,46.3,47.9,46.3c26.4,0,47.9-21.5,47.9-48c0-23.9-17.5-43.8-40.4-47.4l1.7,18.5c12.4,4,21,15.7,21,28.9
			c0,16.8-13.6,30.4-30.3,30.4c-14,0-26.2-9.7-29.5-23.2l-18.3-5.8L370.2,327.5C370.2,327.4,370.2,327.4,370.2,327.5z M412.5,339.7
			c-0.4,0-0.7,0-1.1,0c2,1,4.3,1.5,6.6,1.5c8.5,0,15.4-6.9,15.4-15.4c0-4.1-1.6-7.9-4.3-10.7l0.6,5.9v0.1c0.4,5.7-2,11.2-6.4,14.8
			C420.1,338.4,416.3,339.7,412.5,339.7z M414.7,322.3l-5.1-53.8l-9.3,3.6l0,0c-10.6,4.1-18.8,13.2-21.7,24.2l-4.4,16.3l37.7,11.9
			c1,0.3,1.7-0.1,2-0.4C414.2,323.9,414.8,323.3,414.7,322.3z M197.1,350.4c4.9,7.4,13,11.8,21.9,11.8h114.5c6.9,0,13-4.7,14.8-11.4
			l15.8-58.4c1.4-5.3,3.7-10.3,6.7-14.8l-176.2,44.2c-4.9,0.8-8.2-2-9.1-5.5c-1-4,1.4-8.1,5.4-9.1l218.4-54.8l50.8-19.7
			c6.2-2.4,9.3-9.5,6.9-15.7c-3.1-8.1-6.7-15.6-10.9-22.5c-1.8,0.2-31.4,3.4-55.7-18.7c-8.1,1.6-17-1.8-20.7-6l1.3,4.7
			c1.6,5.7,0.6,11.8-2.6,16.8c-3.3,5-8.5,8.3-14.4,9.1l-23.8,3.3c-5.6,0.8-11.4-0.8-15.8-4.4L299.6,179c-3.9-3.2-8.9-4.8-14-4.4
			l-109.7,8.5c-2.1,0.2-2.8,1.6-3,2.5s-0.4,2.5,1.3,3.7l57.9,40.7c6.1,4.3,9.7,11.3,9.7,18.8c-0.1,7.5-3.8,14.5-10,18.7l-54.6,37
			c-4,2.7-5.1,8.2-2.4,12.2L197.1,350.4z M182.6,355.7l-6.5-9.8c-0.6,0-25.2-1.2-38-15.6c-2,1.3-3.4,3.5-3.4,6v12.4c0,3.9,3.1,7,7,7
			H182.6L182.6,355.7z M92.5,402.9c25.1,0,48.2-12.1,62.6-32.2h-13.2c-1.6,0-3.2-0.2-4.8-0.5c-11.8,11.9-27.8,18.6-44.6,18.6
			c-34.7,0-62.9-28.3-62.9-63c0-34.1,27.1-61.9,60.8-63c-4-4.6-7.2-9-9.9-13.2c-37.2,5.8-65,38.1-65,76.2
			C15.5,368.3,50,402.9,92.5,402.9z"/>
	</g>
</g>
</svg>
